model,MAE,Pred_MAE,R2,Pred_R2,Best_params,training_time,cat_transformer,num_transformer,feature_selection
GradientBoostingRegressor,-86.36117922763894,93.87675255022337,0.7934255036082247,-1.5654573187329763,"{'regressor__learning_rate': 0.1, 'regressor__max_depth': 4, 'regressor__max_features': 1.0, 'regressor__max_leaf_nodes': 20, 'regressor__subsample': 0.7000000000000001}",205.11,"TargetEncoder(cols=['BuildingType', 'Neighborhood', 'LargestPropertyUseType'],
              min_samples_leaf=20, smoothing=10)",StandardScaler(),final_rs_123_1_0
