model,MAE,Pred_MAE,R2,Pred_R2,Best_params,training_time,cat_transformer,num_transformer,feature_selection
RandomForestRegressor,-95.82683350367537,77.7083929721538,0.709020629116988,0.6578168043691639,"{'regressor__bootstrap': False, 'regressor__criterion': 'squared_error', 'regressor__max_depth': 20, 'regressor__max_features': 'sqrt', 'regressor__n_estimators': 20}",2329.76,"TargetEncoder(cols=['BuildingType', 'Neighborhood', 'LargestPropertyUseType'],
              min_samples_leaf=20, smoothing=10)",RobustScaler(),rs_123_1_1
