model,MAE,Pred_MAE,R2,Pred_R2,Best_params,training_time,cat_transformer,num_transformer,feature_selection
RandomForestRegressor,-95.83362595068259,77.53750206153755,0.7086581075709945,0.6581207806724105,"{'regressor__bootstrap': False, 'regressor__criterion': 'squared_error', 'regressor__max_depth': 20, 'regressor__max_features': 'sqrt', 'regressor__n_estimators': 20}",2321.28,"TargetEncoder(cols=['BuildingType', 'Neighborhood', 'LargestPropertyUseType'],
              min_samples_leaf=20, smoothing=10)",StandardScaler(),rs_123_1_0
