model,MAE,Pred_MAE,R2,Pred_R2,Best_params,training_time,cat_transformer,num_transformer,feature_selection
XGBRegressor,-93.4113997897515,80.9645209386908,0.7203090960267156,0.20203593193767388,"{'regressor__colsample_bytree': 0.3, 'regressor__gamma': 0.0, 'regressor__learning_rate': 0.15, 'regressor__max_depth': 3, 'regressor__min_child_weight': 3}",557.46,"TargetEncoder(cols=['BuildingType', 'Neighborhood', 'LargestPropertyUseType'],
              min_samples_leaf=20, smoothing=10)",StandardScaler(),rs_123_1_0
