model,MAE,Pred_MAE,R2,Pred_R2,Best_params,training_time,cat_transformer,num_transformer,feature_selection
Lasso,-138.91857268746784,154.5422810651171,0.23575452231899274,-5.085413584528412,"{'regressor__alpha': 0.18738174228603868, 'regressor__fit_intercept': False}",25.21,"TargetEncoder(cols=['BuildingType', 'Neighborhood', 'LargestPropertyUseType'],
              min_samples_leaf=20, smoothing=10)",StandardScaler(),_rs_123_1_0
