model,MAE,Pred_MAE,R2,Pred_R2,Best_params,training_time,cat_transformer,num_transformer,feature_selection
Ridge,-133.2883170553343,123.37668022436532,0.2849533485672953,-1.1320401025239795,"{'regressor__alpha': 1882.4679033962318, 'regressor__fit_intercept': False, 'regressor__solver': 'svd'}",123.47,"TargetEncoder(cols=['BuildingType', 'Neighborhood', 'LargestPropertyUseType'],
              min_samples_leaf=20, smoothing=10)",StandardScaler(),_rs_123_1_0
