model,MAE,Pred_MAE,R2,Pred_R2,Best_params,training_time,cat_transformer,num_transformer,feature_selection
RandomForestRegressor,-3312788.9236228922,3333071.623727503,0.7025309828866513,0.6346157617238024,"{'regressor__bootstrap': True, 'regressor__criterion': 'absolute_error', 'regressor__max_depth': 30, 'regressor__max_features': 'sqrt', 'regressor__n_estimators': 20}",1113.68,"TargetEncoder(cols=['BuildingType', 'Neighborhood', 'LargestPropertyUseType'],
              min_samples_leaf=20, smoothing=10)",StandardScaler(),nolargest1_rs_1_1_0
