model,MAE,Pred_MAE,R2,Pred_R2,Best_params,training_time,cat_transformer,num_transformer,feature_selection
XGBRegressor,-3176047.643184969,3365321.266277484,0.7401545868044537,0.5679202304664395,"{'regressor__gamma': 0.05, 'regressor__learning_rate': 0.3, 'regressor__max_depth': 2, 'regressor__n_estimators': 100, 'regressor__reg_lambda': 0.2, 'regressor__subsample': 1.0}",831.12,"TargetEncoder(cols=['BuildingType', 'PrimaryPropertyType', 'Neighborhood',
                    'LargestPropertyUseType'],
              min_samples_leaf=20, smoothing=10)",StandardScaler(),nolargest_rs_1_1_0
