model,MAE,Pred_MAE,R2,Pred_R2,Best_params,training_time,cat_transformer,num_transformer,feature_selection
XGBRegressor,-3266664.518887488,2980658.142102407,0.7387428606677279,0.7384608021714594,"{'regressor__gamma': 0.04, 'regressor__learning_rate': 0.01, 'regressor__n_estimators': 400, 'regressor__reg_lambda': 0, 'regressor__subsample': 0.8}",1006.04,"TargetEncoder(cols=['BuildingType', 'PrimaryPropertyType', 'Neighborhood',
                    'LargestPropertyUseType'],
              min_samples_leaf=20, smoothing=10)",StandardScaler(),_rs1_1_0
