model,MAE,Pred_MAE,R2,Pred_R2,Best_params,training_time,cat_transformer,num_transformer,feature_selection
ElasticNet,-5881469.322548555,6235614.436692734,-0.5388287154352327,-1.2193801479569468,"{'regressor__alpha': 0.1, 'regressor__max_iter': 15}",9.31,"TargetEncoder(cols=['BuildingType', 'Neighborhood', 'LargestPropertyUseType'],
              min_samples_leaf=20, smoothing=10)",StandardScaler(),cleanup_withprim_1
